Paccar Supply Chain Project
…
#Model value for maximum allowable rhit quantity.
model_dat$max_rhit_qty <- round(EOQ(eoq['demand_avg'], eoq['part_cost'], eoq['storage_cost'], eoq['rhit_cost_avg'])[[3]], 2)

#Model value for optimized total variable cost for each part.
model_dat$tvc <- round(EOQ(eoq['demand_avg'], eoq['part_cost'], eoq['storage_cost'], eoq['rhit_cost_avg'])[[4]], 2)

#Filter any tvc of 0 or NA and rline NA
model_dat <- model_dat %>% mutate(tvc = (if_else(is.na(tvc), 0, tvc))) %>% 
  filter(!is.na(rline_avg) | !is.na(rhit_avg) | !is.na(max_rhit_qty) | !is.na(rhit_qty_avg))

#For display filter out any part with no or extremely low yearly variable cost.
model_dat  

## # A tibble: 59,025 x 23
##    dim   velocity part_cost item_desc stock_class marketing_categ on_hand
##    <chr> <chr>        <dbl> <chr>     <chr>       <chr>              <dbl>
##  1 K431 3          1155.   KIT-ECU  151K        TRANSMISSION           6
##  2 2011 9             3.11 SKIRT     151         TRANSMISSION           0
##  3 M66- 9           277.   PIPE-EXH 900R        PROP SUSPENSION        0
##  4 2-4- 9            37.0  YOKE-HAL 149A        DRIVELINE              0
##  5 1693 N             1.32 REFLECTOR 301         CAB & SLPR INTE      43
##  6 3688 9            21.3  TUBE-FUE 392N        ENGINE PARTS           0
##  7 4308 9             8.56 WASHER    151         TRANSMISSION           0
##  8 TM50 9             4.14 KIT-MOUN 303P        MIRRORS                0
##  9 3684 9           143.   MANIFOLD 392N        ENGINE PARTS           3
## 10 1532 9             2.93 SEAL-ELE 466         ELECTRICAL DIST       -1
## #  with 59,015 more rows, and 16 more variables: on_order <dbl>,
## #   lead_time <dbl>, fcst_monthly <dbl>, safety_stock_qty <dbl>,
## #   days_on_hand <dbl>, storage_volume <dbl>, storage_cost <dbl>,
## #   demand_avg <dbl>, rline_avg <dbl>, rhit_avg <dbl>, rhit_qty_avg <dbl>,
## #   rhit_cost_avg <dbl>, q <dbl>, cycle_length <dbl>, max_rhit_qty <dbl>,
## #   tvc <dbl>
…
#Model value for maximum allowable rhit quantity.
model_dat2$max_rhit_qty_ss <- round(EOQ(eoq_ss['demand_mean'], eoq_ss['part_cost'], eoq_ss['storage_cost'], eoq_ss['rhit_cost_mean'])[[3]], 2)

#Model value for optimized total variable cost for each part.
model_dat2$tvc_ss <- round(EOQ(eoq_ss['demand_mean'], eoq_ss['part_cost'], eoq_ss['storage_cost'], eoq_ss['rhit_cost_mean'])[[4]], 2)

#Filter any tvc of 0 or NA.
model_dat2 <- model_dat2 %>% filter(tvc_ss > 0)

#For display filter out any part with no or extremely low yearly variable cost.
model_dat2  %>% filter(tvc_ss > 0.5)

## # A tibble: 17,408 x 23
##    dim   velocity part_cost item_desc stock_class marketing_categ on_hand
##    <chr> <chr>        <dbl> <chr>     <chr>       <chr>              <dbl>
##  1 K431 3          1155.   KIT-ECU  151K        TRANSMISSION           6
##  2 10-0 9            61.7  DRAGLINK 518         STEERING PARTS        11
##  3 755K 9             9.27 BELT-POL 410N        HOSE FITTINGS&V      29
##  4 3692 3             2.86 SEAL O R 392N        ENGINE PARTS           9
##  5 4368 9            44.6  CLUTCH A 383J        HEATER/AIR COND        3
##  6 0854 9             3.98 KIT-FILT 008W        AFTERTREATMENT        0
##  7 14-1 9           135    PIPE-EXH 007T        LEGACY EXHAUST         3
##  8 PS22 9           113.   PUMP-POW 515B        STEERING GEARS&       0
##  9 B81- 3           158.   SPRING-F 004J        PROP SUSPENSION       10
## 10 1976 M             0.49 O-RING-  008A        MX ENGINE PARTS      126
## #  with 17,398 more rows, and 16 more variables: on_order <dbl>,
## #   lead_time <dbl>, fcst_monthly <dbl>, safety_stock_qty <dbl>,
## #   days_on_hand <dbl>, storage_volume <dbl>, storage_cost <dbl>,
## #   demand_mean <dbl>, demand_sd <dbl>, rhit_avg <dbl>,
## #   rhit_cost_mean <dbl>, ss_opt <dbl>, q_ss <dbl>, cycle_length_ss <dbl>,
## #   max_rhit_qty_ss <dbl>, tvc_ss <dbl>
…
#Model value for maximum allowable rhit quantity.
model_dat3$max_rhit_qty <- round(EOQ(eoq_ns['demand_avg'], eoq_ns['part_cost'], eoq_ns['storage_cost'], eoq_ns['rhit_cost_avg'])[[3]], 2)

#Model value for optimized total variable cost for each part.
model_dat3$tvc <- round(EOQ(eoq_ns['demand_avg'], eoq_ns['part_cost'], eoq_ns['storage_cost'], eoq_ns['rhit_cost_avg'])[[4]], 2)

#Filter any tvc of 0 or NA.
model_dat3 <- model_dat3 %>% filter(tvc > 0)

#For display filter out any part with no or extremely low yearly variable cost.
model_dat3  %>% filter(tvc > 0.5)

## # A tibble: 17,485 x 23
##    dim   velocity part_cost item_desc stock_class marketing_categ on_hand
##    <chr> <chr>        <dbl> <chr>     <chr>       <chr>              <dbl>
##  1 K431 3          1155.   KIT-ECU  151K        TRANSMISSION           6
##  2 10-0 9            61.7  DRAGLINK 518         STEERING PARTS        11
##  3 755K 9             9.27 BELT-POL 410N        HOSE FITTINGS&V      29
##  4 3692 3             2.86 SEAL O R 392N        ENGINE PARTS           9
##  5 4368 9            44.6  CLUTCH A 383J        HEATER/AIR COND        3
##  6 0854 9             3.98 KIT-FILT 008W        AFTERTREATMENT        0
##  7 14-1 9           135    PIPE-EXH 007T        LEGACY EXHAUST         3
##  8 PS22 9           113.   PUMP-POW 515B        STEERING GEARS&       0
##  9 B81- 3           158.   SPRING-F 004J        PROP SUSPENSION       10
## 10 1976 M             0.49 O-RING-  008A        MX ENGINE PARTS      126
## #  with 17,475 more rows, and 16 more variables: on_order <dbl>,
## #   lead_time <dbl>, fcst_monthly <dbl>, safety_stock_qty <dbl>,
## #   days_on_hand <dbl>, storage_volume <dbl>, storage_cost <dbl>,
## #   demand_avg <dbl>, rline_avg <dbl>, rhit_avg <dbl>, rhit_qty_avg <dbl>,
## #   rhit_cost_avg <dbl>, q <dbl>, cycle_length <dbl>, max_rhit_qty <dbl>,
## #   tvc <dbl>
…
#Model value for maximum allowable rhit quantity.
model_dat4$max_rhit_qty <- round(EOQ(eoq_m['demand_mavg'], eoq_m['part_cost'], eoq_m['storage_cost'], eoq_m['rhit_cost_mavg'])[[3]], 2)

#Model value for optimized total variable cost for each part.
model_dat4$tvc <- round(EOQ(eoq_m['demand_mavg'], eoq_m['part_cost'], eoq_m['storage_cost'], eoq_m['rhit_cost_mavg'])[[4]], 2)

#Filter any tvc of 0 or NA.
model_dat4 <- model_dat4 %>% filter(tvc > 0)

#For display filter out any part with no or extremely low yearly variable cost.
model_dat4  %>% filter(tvc > 0.5)

## # A tibble: 5,898 x 21
##    dim   velocity part_cost item_desc stock_class marketing_categ on_hand
##    <chr> <chr>        <dbl> <chr>     <chr>       <chr>              <dbl>
##  1 K431 3          1155.   KIT-ECU  151K        TRANSMISSION           6
##  2 PS22 9           113.   PUMP-POW 515B        STEERING GEARS&       0
##  3 K032 9            12.0  TRAY-BAT 004         CAB & SLPR INTE       0
##  4 1008 9             6.01 KIT-MINO 019         BRAKE PARTS            9
##  5 2754 9            10.8  GOVERNOR 110X        AIR SYSTEM             3
##  6 5260 3           130.   PUMP-FUE 393X        ENGINE PARTS          10
##  7 3097 9           682.   CLUT SEL 148S        CLUTCH                 5
##  8 M66- 9           254.   PIPE-EXH 900R        PROP SUSPENSION        0
##  9 MD30 9            30.1  TRIM-FND 299M        ACCESSORIES            4
## 10 8171 9           706.   KNUCKLE  011F        STEERING PARTS         2
## #  with 5,888 more rows, and 14 more variables: on_order <dbl>,
## #   lead_time <dbl>, fcst_monthly <dbl>, safety_stock_qty <dbl>,
## #   days_on_hand <dbl>, storage_volume <dbl>, storage_cost <dbl>,
## #   demand_mavg <dbl>, rhit_mavg <dbl>, rhit_cost_mavg <dbl>, q <dbl>,
## #   cycle_length <dbl>, max_rhit_qty <dbl>, tvc <dbl>
…
